com\tprm\fix\Trade.class
com\tprm\fix\MainClass.class
com\tprm\fix\Application.class
com\tprm\fix\JacksonConfiguration.class
com\tprm\fix\MainTest.class
com\tprm\fix\Application$1.class
com\tprm\fix\FixTrade.class
com\tprm\fix\Main1.class
com\tprm\fix\MarketDataProvider.class
com\tprm\fix\FIXAdapter.class
com\tprm\fix\MessagingConfiguration.class
